[
    {   
        "country": "Emirates Arabes Unis",
        "imgs": ["HYATT_REGENCY_CREEK.png", "LAGUNA_BEACH.png", "JAPON.jpg", "IMPIANA_RESORT_SAMUI.png"],
        "place": "Dubaï",
        "label": "Hyatt Regency Creek",
        "rating": 5,
        "upto": "Dès 67€",
        "redirect_label": "VERS LES EMIRATS ARABES UNIS — DUBAÏ",
        "tags":[
            {
                "classname": "premium",
                "label": "Premium"
            },
            {
                "classname": "option",
                "label": "Surclassement offert"
            }
        ],
        "link": ""
    },
    {   
        "country": "Maurice",
        "imgs": ["LAGUNA_BEACH.png", "ENTRE_CULTURE_ET_PLAGES.png", "JAPON.jpg"],
        "place": "Grand Rivière",
        "label": "Laguna Beach Hotel & Spa",
        "rating": 4,
        "upto": "Jusqu'à -64%",
        "redirect_label": "VERS MAURICE — GRAND RIVIÈRE",
        "tags":[
            {
                "classname": "premium",
                "label": "Tout inclus"
            },
            {
                "classname": "option",
                "label": "Spa"
            }
        ],
        "link": ""
    },
    {   
        "country": "Emirates Arabes Unis",
        "imgs": ["FAIRMONT_DUBAI.png", "LAGUNA_BEACH.png", "HYATT_REGENCY_CREEK.png"],
        "place": "Dubaï",
        "label": "Fairmont Dubaï",
        "rating": 5,
        "upto": "Dès 99€",
        "redirect_label": "VERS LES EMIRATS ARABES UNIS — DUBAÏ",
        "tags":[
            {
                "classname": "premium",
                "label": "Premium"
            },
            {
                "classname": "option",
                "label": "Rooftop"
            }
        ],
        "link": ""
    },
    {   
        "country": "Indonésie",
        "imgs": ["STHALA_MARC_PATRA.png", "JAPON.jpg", "ENTRE_CULTURE_ET_PLAGES.png"],
        "place": "Bali & Gili",
        "label": "Combiné Sthala - Marc - Patra",
        "rating": 0,
        "upto": "Dès 469€",
        "redirect_label": "VERS L'INDONÉSIE — BALI & GILI",
        "tags":[
            {
                "classname": "premium",
                "label": "Combiné"
            },
            {
                "classname": "option",
                "label": "Petit déjeuner inclus"
            }
        ],
        "link": ""
    },
    {   
        "country": "Maldives",
        "imgs": ["NOKU_MALDIVES.png", "FAIRMONT_DUBAI.png", "JAPON.jpg"],
        "place": "Atoll de Noonu",
        "label": "Noku Maldives",
        "rating": 5,
        "upto": "Jusqu'à -36%",
        "redirect_label": "VERS MALDIVES — ATOLL DE NOONU",
        "tags":[
            {
                "classname": "premium",
                "label": "Premium"
            },
            {
                "classname": "option",
                "label": "Massage offert"
            }
        ],
        "link": ""
    },
    {   
        "country": "Thaïlande",
        "imgs": ["IMPIANA_RESORT_SAMUI.png", "STHALA_MARC_PATRA.png", "NOKU_MALDIVES.png"],
        "place": "Koh Samui",
        "label": "Impiana Resort Samui",
        "rating": 4,
        "upto": "Jusqu'à -70%",
        "redirect_label": "VERS LA THAÏLANDE — KOH SAMUI",
        "tags":[
            {
                "classname": "premium",
                "label": "Massage offert"
            },
            {
                "classname": "option",
                "label": "Surclassement offert"
            }
        ],
        "link": ""
    },
    {   
        "country": "Maurice",
        "imgs": ["CLOS_DU_LITTORAL.png", "HYATT_REGENCY_CREEK.png", "LAGUNA_BEACH.png"],
        "place": "Grand Baie",
        "label": "Clos du Littoral",
        "rating": 4,
        "upto": "Dès 538€",
        "redirect_label": "VERS MAURICE — GRAND BAIE",
        "tags":[
            {
                "classname": "premium",
                "label": "Premium"
            },
            {
                "classname": "option",
                "label": "Villas avec Piscine Privée"
            }
        ],
        "link": ""
    },
    {   
        "country": "Sri Lanka",
        "imgs": ["FAIRMONT_DUBAI.png", "STHALA_MARC_PATRA.png", "FAIRMONT_DUBAI.png"],
        "place": "Sri Lanka",
        "label": "Echappée SriLankaise",
        "rating": 3,
        "upto": "Dès 699€",
        "redirect_label": "VERS LE SRI LANKA",
        "tags":[
            {
                "classname": "premium",
                "label": "Circuit"
            },
            {
                "classname": "option",
                "label": "Privatif"
            }
        ],
        "link": ""
    },
    {   
        "country": "Japon",
        "imgs": ["JAPON.jpg", "NOKU_MALDIVES.png", "FAIRMONT_DUBAI.png"],
        "place": "Tokyo",
        "label": "Grand Arc Hanzomon",
        "rating": 3,
        "upto": "Dès 114€",
        "redirect_label": "VERS LE JAPON — GRAND ARC HANZOMON",
        "tags":[
            {
                "classname": "premium",
                "label": "City Break"
            },
            {
                "classname": "option",
                "label": "Insolite"
            }
        ],
        "link": ""
    },
    {   
        "country": "Vietnam",
        "imgs": ["ENTRE_CULTURE_ET_PLAGES.png", "CLOS_DU_LITTORAL.png", "STHALA_MARC_PATRA.png"],
        "place": "De Hanoï à Hoi An",
        "label": "Entre Culture et Plages",
        "rating": 4,
        "upto": "Dès 779€",
        "redirect_label": "VERS LE VIETNAM — DE HANOÏ À HOI AN",
        "tags":[
            {
                "classname": "premium",
                "label": "Circuit"
            },
            {
                "classname": "option",
                "label": "Privatif"
            }
        ],
        "link": ""
    },
    {   
        "country": "Emirates Arabes Unis",
        "imgs": ["HYATT_REGENCY_CREEK.png", "LAGUNA_BEACH.png", "JAPON.jpg", "IMPIANA_RESORT_SAMUI.png"],
        "place": "Dubaï",
        "label": "Hyatt Regency Creek",
        "rating": 5,
        "upto": "Dès 67€",
        "redirect_label": "VERS LES EMIRATS ARABES UNIS — DUBAÏ",
        "tags":[
            {
                "classname": "premium",
                "label": "Premium"
            },
            {
                "classname": "option",
                "label": "Surclassement offert"
            }
        ],
        "link": ""
    },
    {   
        "country": "Maurice",
        "imgs": ["LAGUNA_BEACH.png", "ENTRE_CULTURE_ET_PLAGES.png", "JAPON.jpg"],
        "place": "Grand Rivière",
        "label": "Laguna Beach Hotel & Spa",
        "rating": 4,
        "upto": "Jusqu'à -64%",
        "redirect_label": "VERS MAURICE — GRAND RIVIÈRE",
        "tags":[
            {
                "classname": "premium",
                "label": "Tout inclus"
            },
            {
                "classname": "option",
                "label": "Spa"
            }
        ],
        "link": ""
    },
    {   
        "country": "Emirates Arabes Unis",
        "imgs": ["FAIRMONT_DUBAI.png", "LAGUNA_BEACH.png", "HYATT_REGENCY_CREEK.png"],
        "place": "Dubaï",
        "label": "Fairmont Dubaï",
        "rating": 5,
        "upto": "Dès 99€",
        "redirect_label": "VERS LES EMIRATS ARABES UNIS — DUBAÏ",
        "tags":[
            {
                "classname": "premium",
                "label": "Premium"
            },
            {
                "classname": "option",
                "label": "Rooftop"
            }
        ],
        "link": ""
    },
    {   
        "country": "Indonésie",
        "imgs": ["STHALA_MARC_PATRA.png", "JAPON.jpg", "ENTRE_CULTURE_ET_PLAGES.png"],
        "place": "Bali & Gili",
        "label": "Combiné Sthala - Marc - Patra",
        "rating": 0,
        "upto": "Dès 469€",
        "redirect_label": "VERS L'INDONÉSIE — BALI & GILI",
        "tags":[
            {
                "classname": "premium",
                "label": "Combiné"
            },
            {
                "classname": "option",
                "label": "Petit déjeuner inclus"
            }
        ],
        "link": ""
    },
    {   
        "country": "Maldives",
        "imgs": ["NOKU_MALDIVES.png", "FAIRMONT_DUBAI.png", "JAPON.jpg"],
        "place": "Atoll de Noonu",
        "label": "Noku Maldives",
        "rating": 5,
        "upto": "Jusqu'à -36%",
        "redirect_label": "VERS MALDIVES — ATOLL DE NOONU",
        "tags":[
            {
                "classname": "premium",
                "label": "Premium"
            },
            {
                "classname": "option",
                "label": "Massage offert"
            }
        ],
        "link": ""
    },
    {   
        "country": "Thaïlande",
        "imgs": ["IMPIANA_RESORT_SAMUI.png", "STHALA_MARC_PATRA.png", "NOKU_MALDIVES.png"],
        "place": "Koh Samui",
        "label": "Impiana Resort Samui",
        "rating": 4,
        "upto": "Jusqu'à -70%",
        "redirect_label": "VERS LA THAÏLANDE — KOH SAMUI",
        "tags":[
            {
                "classname": "premium",
                "label": "Massage offert"
            },
            {
                "classname": "option",
                "label": "Surclassement offert"
            }
        ],
        "link": ""
    },
    {   
        "country": "Maurice",
        "imgs": ["CLOS_DU_LITTORAL.png", "HYATT_REGENCY_CREEK.png", "LAGUNA_BEACH.png"],
        "place": "Grand Baie",
        "label": "Clos du Littoral",
        "rating": 4,
        "upto": "Dès 538€",
        "redirect_label": "VERS MAURICE — GRAND BAIE",
        "tags":[
            {
                "classname": "premium",
                "label": "Premium"
            },
            {
                "classname": "option",
                "label": "Villas avec Piscine Privée"
            }
        ],
        "link": ""
    },
    {   
        "country": "Sri Lanka",
        "imgs": ["FAIRMONT_DUBAI.png", "STHALA_MARC_PATRA.png", "FAIRMONT_DUBAI.png"],
        "place": "Sri Lanka",
        "label": "Echappée SriLankaise",
        "rating": 3,
        "upto": "Dès 699€",
        "redirect_label": "VERS LE SRI LANKA",
        "tags":[
            {
                "classname": "premium",
                "label": "Circuit"
            },
            {
                "classname": "option",
                "label": "Privatif"
            }
        ],
        "link": ""
    },
    {   
        "country": "Japon",
        "imgs": ["JAPON.jpg", "NOKU_MALDIVES.png", "FAIRMONT_DUBAI.png"],
        "place": "Tokyo",
        "label": "Grand Arc Hanzomon",
        "rating": 3,
        "upto": "Dès 114€",
        "redirect_label": "VERS LE JAPON — GRAND ARC HANZOMON",
        "tags":[
            {
                "classname": "premium",
                "label": "City Break"
            },
            {
                "classname": "option",
                "label": "Insolite"
            }
        ],
        "link": ""
    },
    {   
        "country": "Vietnam",
        "imgs": ["ENTRE_CULTURE_ET_PLAGES.png", "CLOS_DU_LITTORAL.png", "STHALA_MARC_PATRA.png"],
        "place": "De Hanoï à Hoi An",
        "label": "Entre Culture et Plages",
        "rating": 4,
        "upto": "Dès 779€",
        "redirect_label": "VERS LE VIETNAM — DE HANOÏ À HOI AN",
        "tags":[
            {
                "classname": "premium",
                "label": "Circuit"
            },
            {
                "classname": "option",
                "label": "Privatif"
            }
        ],
        "link": ""
    },
    {   
        "country": "Emirates Arabes Unis",
        "imgs": ["HYATT_REGENCY_CREEK.png", "LAGUNA_BEACH.png", "JAPON.jpg", "IMPIANA_RESORT_SAMUI.png"],
        "place": "Dubaï",
        "label": "Hyatt Regency Creek",
        "rating": 5,
        "upto": "Dès 67€",
        "redirect_label": "VERS LES EMIRATS ARABES UNIS — DUBAÏ",
        "tags":[
            {
                "classname": "premium",
                "label": "Premium"
            },
            {
                "classname": "option",
                "label": "Surclassement offert"
            }
        ],
        "link": ""
    },
    {   
        "country": "Maurice",
        "imgs": ["LAGUNA_BEACH.png", "ENTRE_CULTURE_ET_PLAGES.png", "JAPON.jpg"],
        "place": "Grand Rivière",
        "label": "Laguna Beach Hotel & Spa",
        "rating": 4,
        "upto": "Jusqu'à -64%",
        "redirect_label": "VERS MAURICE — GRAND RIVIÈRE",
        "tags":[
            {
                "classname": "premium",
                "label": "Tout inclus"
            },
            {
                "classname": "option",
                "label": "Spa"
            }
        ],
        "link": ""
    },
    {   
        "country": "Emirates Arabes Unis",
        "imgs": ["FAIRMONT_DUBAI.png", "LAGUNA_BEACH.png", "HYATT_REGENCY_CREEK.png"],
        "place": "Dubaï",
        "label": "Fairmont Dubaï",
        "rating": 5,
        "upto": "Dès 99€",
        "redirect_label": "VERS LES EMIRATS ARABES UNIS — DUBAÏ",
        "tags":[
            {
                "classname": "premium",
                "label": "Premium"
            },
            {
                "classname": "option",
                "label": "Rooftop"
            }
        ],
        "link": ""
    },
    {   
        "country": "Indonésie",
        "imgs": ["STHALA_MARC_PATRA.png", "JAPON.jpg", "ENTRE_CULTURE_ET_PLAGES.png"],
        "place": "Bali & Gili",
        "label": "Combiné Sthala - Marc - Patra",
        "rating": 0,
        "upto": "Dès 469€",
        "redirect_label": "VERS L'INDONÉSIE — BALI & GILI",
        "tags":[
            {
                "classname": "premium",
                "label": "Combiné"
            },
            {
                "classname": "option",
                "label": "Petit déjeuner inclus"
            }
        ],
        "link": ""
    },
    {   
        "country": "Maldives",
        "imgs": ["NOKU_MALDIVES.png", "FAIRMONT_DUBAI.png", "JAPON.jpg"],
        "place": "Atoll de Noonu",
        "label": "Noku Maldives",
        "rating": 5,
        "upto": "Jusqu'à -36%",
        "redirect_label": "VERS MALDIVES — ATOLL DE NOONU",
        "tags":[
            {
                "classname": "premium",
                "label": "Premium"
            },
            {
                "classname": "option",
                "label": "Massage offert"
            }
        ],
        "link": ""
    },
    {   
        "country": "Thaïlande",
        "imgs": ["IMPIANA_RESORT_SAMUI.png", "STHALA_MARC_PATRA.png", "NOKU_MALDIVES.png"],
        "place": "Koh Samui",
        "label": "Impiana Resort Samui",
        "rating": 4,
        "upto": "Jusqu'à -70%",
        "redirect_label": "VERS LA THAÏLANDE — KOH SAMUI",
        "tags":[
            {
                "classname": "premium",
                "label": "Massage offert"
            },
            {
                "classname": "option",
                "label": "Surclassement offert"
            }
        ],
        "link": ""
    },
    {   
        "country": "Maurice",
        "imgs": ["CLOS_DU_LITTORAL.png", "HYATT_REGENCY_CREEK.png", "LAGUNA_BEACH.png"],
        "place": "Grand Baie",
        "label": "Clos du Littoral",
        "rating": 4,
        "upto": "Dès 538€",
        "redirect_label": "VERS MAURICE — GRAND BAIE",
        "tags":[
            {
                "classname": "premium",
                "label": "Premium"
            },
            {
                "classname": "option",
                "label": "Villas avec Piscine Privée"
            }
        ],
        "link": ""
    },
    {   
        "country": "Sri Lanka",
        "imgs": ["FAIRMONT_DUBAI.png", "STHALA_MARC_PATRA.png", "FAIRMONT_DUBAI.png"],
        "place": "Sri Lanka",
        "label": "Echappée SriLankaise",
        "rating": 3,
        "upto": "Dès 699€",
        "redirect_label": "VERS LE SRI LANKA",
        "tags":[
            {
                "classname": "premium",
                "label": "Circuit"
            },
            {
                "classname": "option",
                "label": "Privatif"
            }
        ],
        "link": ""
    },
    {   
        "country": "Japon",
        "imgs": ["JAPON.jpg", "NOKU_MALDIVES.png", "FAIRMONT_DUBAI.png"],
        "place": "Tokyo",
        "label": "Grand Arc Hanzomon",
        "rating": 3,
        "upto": "Dès 114€",
        "redirect_label": "VERS LE JAPON — GRAND ARC HANZOMON",
        "tags":[
            {
                "classname": "premium",
                "label": "City Break"
            },
            {
                "classname": "option",
                "label": "Insolite"
            }
        ],
        "link": ""
    },
    {   
        "country": "Vietnam",
        "imgs": ["ENTRE_CULTURE_ET_PLAGES.png", "CLOS_DU_LITTORAL.png", "STHALA_MARC_PATRA.png"],
        "place": "De Hanoï à Hoi An",
        "label": "Entre Culture et Plages",
        "rating": 4,
        "upto": "Dès 779€",
        "redirect_label": "VERS LE VIETNAM — DE HANOÏ À HOI AN",
        "tags":[
            {
                "classname": "premium",
                "label": "Circuit"
            },
            {
                "classname": "option",
                "label": "Privatif"
            }
        ],
        "link": ""
    }
]
